…
LAozone

## # A tibble: 330 x 11
##    ozone    vh  wind humidity  temp   ibh   dpg   ibt   vis   doy    id
##    <int> <int> <int>    <int> <int> <int> <int> <int> <int> <int> <int>
##  1     3  5710     4       28    40  2693   -25    87   250     3     1
##  2     5  5700     3       37    45   590   -24   128   100     4     2
##  3     5  5760     3       51    54  1450    25   139    60     5     3
##  4     6  5720     4       69    35  1568    15   121    60     6     4
##  5     4  5790     6       19    45  2631   -33   123   100     7     5
##  6     4  5790     3       25    55   554   -28   182   250     8     6
##  7     6  5700     3       73    41  2083    23   114   120     9     7
##  8     7  5700     3       59    44  2654    -2    91   120    10     8
##  9     4  5770     8       27    54  5000   -19    92   120    11     9
## 10     6  5720     3       44    51   111     9   173   150    12    10
## # ... with 320 more rows

# a)

# Separate the predictor variables

LAozone[,2:10]

## # A tibble: 330 x 9
##       vh  wind humidity  temp   ibh   dpg   ibt   vis   doy
##    <int> <int>    <int> <int> <int> <int> <int> <int> <int>
##  1  5710     4       28    40  2693   -25    87   250     3
##  2  5700     3       37    45   590   -24   128   100     4
##  3  5760     3       51    54  1450    25   139    60     5
##  4  5720     4       69    35  1568    15   121    60     6
##  5  5790     6       19    45  2631   -33   123   100     7
##  6  5790     3       25    55   554   -28   182   250     8
##  7  5700     3       73    41  2083    23   114   120     9
##  8  5700     3       59    44  2654    -2    91   120    10
##  9  5770     8       27    54  5000   -19    92   120    11
## 10  5720     3       44    51   111     9   173   150    12
## # ... with 320 more rows
…
# b)

library(tidyr)

# Convert predictor variables of LAozone dataset from wide to long and storing it in LAozone_long dataset 

LAozone_long <- gather(LAozone[,2:11], variable, value, vh:doy, factor_key=TRUE)
LAozone_long

## # A tibble: 2,970 x 3
##       id variable value
##    <int>   <fctr> <int>
##  1     1       vh  5710
##  2     2       vh  5700
##  3     3       vh  5760
##  4     4       vh  5720
##  5     5       vh  5790
##  6     6       vh  5790
##  7     7       vh  5700
##  8     8       vh  5700
##  9     9       vh  5770
## 10    10       vh  5720
## # ... with 2,960 more rows
…
